1 10 20
100 200 125
201 210 89
900 1000 174
7455 312 262
1987 5342 238
9078 6743 257
1234 8765 262
5678 2345 238
9999 1111 262
4444 7777 262
8888 2222 262
6543 9876 260
4321 7654 262
8765 1234 262
2345 5678 238
1111 9999 262
7777 4444 262
2222 8888 262
9876 6543 260
7654 4321 262
5678 2345 238
1111 9999 262
4444 7777 262
7654 4321 262
9876 6543 260
8765 1234 262
2222 8888 262
1987 5342 238
7455 312 262
9078 6743 257
1234 8765 262
9078 6743 257
4444 7777 262
9876 6543 260
7455 312 262
1111 9999 262
8765 1234 262
2345 5678 238
8888 2222 262
1987 5342 238
5678 2345 238
9999 1111 262
4321 7654 262
7654 4321 262
7455 312 262
4444 7777 262
1234 8765 262
9876 6543 260
9078 6743 257
1111 9999 262
8765 1234 262
2222 8888 262
2345 5678 238
1987 5342 238
8888 2222 262
5678 2345 238
7455 312 262
9999 1111 262
4444 7777 262
1234 8765 262
9078 6743 257
7654 4321 262
9876 6543 260
8765 1234 262
1111 9999 262
2222 8888 262
2345 5678 238
4444 7777 262
7455 312 262
5678 2345 238
1987 5342 238
9078 6743 257
7654 4321 262
1234 8765 262
9876 6543 260
9999 1111 262
8765 1234 262
4444 7777 262
2222 8888 262
2345 5678 238
7455 312 262
9078 6743 257
7654 4321 262
1987 5342 238
1111 9999 262
9876 6543 260
5678 2345 238
4444 7777 262
8765 1234 262
1234 8765 262
2222 8888 262
7455 312 262
2345 5678 238
9078 6743 257
7654 4321 262
1987 5342 238
9999 1111 262
1111 9999 262
4444 7777 262
9876 6543 260
8765 1234 262
5678 2345 238
8888 2222 262
7455 312 262
2345 5678 238
7654 4321 262
9078 6743 257
4444 7777 262
8765 1234 262
9999 1111 262
1111 9999 262
1987 5342 238
2222 8888 262
1234 8765 262
9876 6543 260
7455 312 262
5678 2345 238
7654 4321 262
9078 6743 257
4444 7777 262
2345 5678 238
8765 1234 262
1111 9999 262
9999 1111 262
7455 312 262
7654 4321 262
9876 6543 260
5678 2345 238
4444 7777 262
1234 8765 262
9078 6743 257
2345 5678 238
8765 1234 262
8888 2222 262
1987 5342 238
7455 312 262
1111 9999 262
7654 4321 262
4444 7777 262
2345 5678 238
9078 6743 257
9876 6543 260
5678 2345 238
8765 1234 262
2222 8888 262
9999 1111 262
7455 312 262
1234 8765 262
1987 5342 238
4444 7777 262
7654 4321 262
9078 6743 257
2345 5678 238
